\relax 
\providecommand\hyper@newdestlabel[2]{}
\providecommand\HyperFirstAtBeginDocument{\AtBeginDocument}
\HyperFirstAtBeginDocument{\ifx\hyper@anchor\@undefined
\global\let\oldcontentsline\contentsline
\gdef\contentsline#1#2#3#4{\oldcontentsline{#1}{#2}{#3}}
\global\let\oldnewlabel\newlabel
\gdef\newlabel#1#2{\newlabelxx{#1}#2}
\gdef\newlabelxx#1#2#3#4#5#6{\oldnewlabel{#1}{{#2}{#3}}}
\AtEndDocument{\ifx\hyper@anchor\@undefined
\let\contentsline\oldcontentsline
\let\newlabel\oldnewlabel
\fi}
\fi}
\global\let\hyper@last\relax 
\gdef\HyperFirstAtBeginDocument#1{#1}
\providecommand\HyField@AuxAddToFields[1]{}
\providecommand\HyField@AuxAddToCoFields[2]{}
\bibstyle{elsarticle-num}
\@writefile{toc}{\contentsline {section}{\numberline {1}Introduction}{1}{section.1}}
\citation{Grossi:2003:HET:644108.644250}
\@writefile{toc}{\contentsline {section}{\numberline {2}Our contribution}{3}{section.2}}
\@writefile{toc}{\contentsline {section}{\numberline {3}Preliminaries}{3}{section.3}}
\@writefile{toc}{\contentsline {subsection}{\numberline {3.1}Wavelet trees}{3}{subsection.3.1}}
\citation{gonzalez2005practical,okanohara2007practical,Vigna:2008:BIR:1788888.1788900,gog2014optimized,clark1997compact}
\citation{makinen2005succinct}
\@writefile{toc}{\contentsline {subsubsection}{\numberline {3.1.1}Huffman-shaped Wavelet Tree}{4}{subsubsection.3.1.1}}
\citation{barbay2014efficient}
\citation{kulekci2014enhanced}
\@writefile{toc}{\contentsline {subsection}{\numberline {3.2}Alphabet partitioning}{5}{subsection.3.2}}
\newlabel{AP}{{3.2}{5}{Alphabet partitioning}{subsection.3.2}{}}
\citation{elias1974efficient}
\citation{elias1975universal}
\citation{elias1975universal}
\citation{rice1971adaptive}
\citation{williams1999compressing}
\providecommand*\caption@xref[2]{\@setref\relax\@undefined{#1}}
\newlabel{fig:sub1}{{1a}{6}{Good quality scores\relax }{figure.caption.1}{}}
\newlabel{sub@fig:sub1}{{a}{6}{Good quality scores\relax }{figure.caption.1}{}}
\newlabel{fig:sub2}{{1b}{6}{Bad quality scores\relax }{figure.caption.1}{}}
\newlabel{sub@fig:sub2}{{b}{6}{Bad quality scores\relax }{figure.caption.1}{}}
\@writefile{lof}{\contentsline {figure}{\numberline {1}{\ignorespaces Illumina qualities. Boxplots depict good (left) and bad (right) overall sequencing qualities. The y-axis shows the quality score in \texttt  {Phred} scale, and the x-axis represents the sequencing cycles. Per-cycle quality distributions are shown as quarterlies (yellow boxes). The red line in every box is the median of the quality score, and the blue line is the mean quality score. Colors at the back of the plots delimit scores considered as bad (red), regular (yellow) and good (green).\relax }}{6}{figure.caption.1}}
\newlabel{fig:cycle_examples}{{1}{6}{Illumina qualities. Boxplots depict good (left) and bad (right) overall sequencing qualities. The y-axis shows the quality score in \texttt {Phred} scale, and the x-axis represents the sequencing cycles. Per-cycle quality distributions are shown as quarterlies (yellow boxes). The red line in every box is the median of the quality score, and the blue line is the mean quality score. Colors at the back of the plots delimit scores considered as bad (red), regular (yellow) and good (green).\relax }{figure.caption.1}{}}
\@writefile{toc}{\contentsline {section}{\numberline {4}Methods}{6}{section.4}}
\@writefile{toc}{\contentsline {subsection}{\numberline {4.1}Basic notation}{6}{subsection.4.1}}
\citation{pagh2001low}
\@writefile{toc}{\contentsline {subsection}{\numberline {4.2}Encoding quality scores}{7}{subsection.4.2}}
\citation{okanohara2007practical}
\@writefile{toc}{\contentsline {subsection}{\numberline {4.3}Reducing the space overhead}{8}{subsection.4.3}}
\newlabel{spacered}{{4.3}{8}{Reducing the space overhead}{subsection.4.3}{}}
\@writefile{toc}{\contentsline {subsection}{\numberline {4.4}Accessing the quality scores}{9}{subsection.4.4}}
\citation{huang2011art}
\@writefile{toc}{\contentsline {subsection}{\numberline {4.5}Space complexity}{10}{subsection.4.5}}
\newlabel{space}{{4.5}{10}{Space complexity}{subsection.4.5}{}}
\@writefile{toc}{\contentsline {section}{\numberline {5}Experiments}{10}{section.5}}
\@writefile{lot}{\contentsline {table}{\numberline {1}{\ignorespaces Description of the Illumina platforms and the datasets generated for each one of them.\relax }}{11}{table.caption.2}}
\newlabel{platforms}{{1}{11}{Description of the Illumina platforms and the datasets generated for each one of them.\relax }{table.caption.2}{}}
\@writefile{toc}{\contentsline {section}{\numberline {6}Results}{12}{section.6}}
\@writefile{toc}{\contentsline {section}{\numberline {7}Conclusion and further work}{12}{section.7}}
\bibdata{ref.bib}
\bibcite{Grossi:2003:HET:644108.644250}{{1}{}{{}}{{}}}
\bibcite{gonzalez2005practical}{{2}{}{{}}{{}}}
\bibcite{okanohara2007practical}{{3}{}{{}}{{}}}
\bibcite{Vigna:2008:BIR:1788888.1788900}{{4}{}{{}}{{}}}
\bibcite{gog2014optimized}{{5}{}{{}}{{}}}
\bibcite{clark1997compact}{{6}{}{{}}{{}}}
\bibcite{makinen2005succinct}{{7}{}{{}}{{}}}
\bibcite{barbay2014efficient}{{8}{}{{}}{{}}}
\bibcite{kulekci2014enhanced}{{9}{}{{}}{{}}}
\bibcite{elias1974efficient}{{10}{}{{}}{{}}}
\bibcite{elias1975universal}{{11}{}{{}}{{}}}
\bibcite{rice1971adaptive}{{12}{}{{}}{{}}}
\bibcite{williams1999compressing}{{13}{}{{}}{{}}}
\bibcite{pagh2001low}{{14}{}{{}}{{}}}
\bibcite{huang2011art}{{15}{}{{}}{{}}}
\providecommand\NAT@force@numbers{}\NAT@force@numbers
\@writefile{lof}{\contentsline {figure}{\numberline {2}{\ignorespaces Results of the compression rates obtained during the experiments. The compression rate (y-axis) was measured as the total size of the data structure divided by the total number of quality symbols of the set. The x-axis represents the different Illumina platforms codes as shown in table \ref  {platforms}. The first column of plots indicates the forward reads and the second column indicates the reverse reads. Plots in rows represent the different quality shifts from -4 to 4. Colors indicate the value used for the quality threshold $T$, where light blues are values close to 30 and dark blues are closer to 40.\relax }}{15}{figure.caption.3}}
\newlabel{res}{{2}{15}{Results of the compression rates obtained during the experiments. The compression rate (y-axis) was measured as the total size of the data structure divided by the total number of quality symbols of the set. The x-axis represents the different Illumina platforms codes as shown in table \ref {platforms}. The first column of plots indicates the forward reads and the second column indicates the reverse reads. Plots in rows represent the different quality shifts from -4 to 4. Colors indicate the value used for the quality threshold $T$, where light blues are values close to 30 and dark blues are closer to 40.\relax }{figure.caption.3}{}}
